interactions:
- request:
    body: ''
    headers:
      accept:
      - '*/*'
      accept-encoding:
      - gzip, deflate
      connection:
      - keep-alive
      host:
      - zenodo.org
      user-agent:
      - python-httpx/0.25.0
    method: GET
    uri: https://zenodo.org/oai2d?metadataPrefix=oai_dc&verb=ListIdentifiers
  response:
    content: "<?xml version='1.0' encoding='UTF-8'?>\n<OAI-PMH xmlns=\"http://www.openarchives.org/OAI/2.0/\" xmlns:xsi=\"http://www.w3.org/2001/XMLSchema-instance\" xsi:schemaLocation=\"http://www.openarchives.org/OAI/2.0/ http://www.openarchives.org/OAI/2.0/OAI-PMH.xsd\">\n  <responseDate>2023-11-03T11:26:47Z</responseDate>\n  <request verb=\"ListIdentifiers\" metadataPrefix=\"oai_dc\">https://zenodo.org/oai2d</request>\n  <ListIdentifiers>\n    <header>\n      <identifier>oai:zenodo.org:6538892</identifier>\n      <datestamp>2022-05-11T13:49:36Z</datestamp>\n    </header>\n    <header>\n      <identifier>oai:zenodo.org:5783992</identifier>\n      <datestamp>2021-12-16T01:48:40Z</datestamp>\n    </header>\n    <header>\n      <identifier>oai:zenodo.org:7052211</identifier>\n      <datestamp>2022-10-08T23:36:09Z</datestamp>\n    </header>\n    <header>\n      <identifier>oai:zenodo.org:6615642</identifier>\n      <datestamp>2022-06-06T01:50:36Z</datestamp>\n    </header>\n    <header>\n      <identifier>oai:zenodo.org:6524784</identifier>\n      <datestamp>2022-05-07T01:49:14Z</datestamp>\n    </header>\n    <header>\n      <identifier>oai:zenodo.org:7726619</identifier>\n      <datestamp>2023-03-15T02:26:42Z</datestamp>\n    </header>\n    <header>\n      <identifier>oai:zenodo.org:7586802</identifier>\n      <datestamp>2023-02-28T16:37:46Z</datestamp>\n    </header>\n    <resumptionToken expirationDate=\"2023-11-03T11:28:47Z\" cursor=\"0\" completeListSize=\"3764573\">.eJytzNFOwjAUANB_uc-L2S0wsiU8QFyrU6cM27q-kEo7Nlc3s0GYEv5d_AHCg-cDzhF6aw1E_g0Gge-T0dk0HAUT9OBLby1ExIP6oLttD9ERPu1OG73TL50tqgEiaHW1Nhs4edBvuta5dXXOgDK3z8mAiokiJ-HeMDE2NEQjXX3bUFRvyUSw0r3XyhmWtvMh_17FeJfKLOdI-QrpvXaqzJqyECxZzP-8jqeZ_yS5TB4MSX74xyJTEou0WeKjEPFzjK25-ln-08MvP4fZDE6_ajBvsg.ZUTY9w.jPXJzpx38Q34h07Se9wFBVt4Wic</resumptionToken>\n  </ListIdentifiers>\n</OAI-PMH>\n"
    headers:
      cache-control:
      - private
      content-encoding:
      - gzip
      content-security-policy:
      - "default-src 'self' fonts.googleapis.com *.gstatic.com data: 'unsafe-inline' 'unsafe-eval' blob: zenodo-broker.web.cern.ch zenodo-broker-qa.web.cern.ch maxcdn.bootstrapcdn.com cdnjs.cloudflare.com ajax.googleapis.com webanalytics.web.cern.ch"
      content-type:
      - text/xml; charset=utf-8
      date:
      - Fri, 03 Nov 2023 11:47:42 GMT
      permissions-policy:
      - interest-cohort=()
      referrer-policy:
      - strict-origin-when-cross-origin
      retry-after:
      - '60'
      server:
      - nginx
      set-cookie:
      - session=399b148fc1255583_6544ddde.usanKBvxoIZ4NLrfL3G3Kb2rM2Y; Expires=Mon, 04 Dec 2023 11:47:42 GMT; Secure; HttpOnly; Path=/; SameSite=Lax
      - 5569e5a730cade8ff2b54f1e815f3670=79172538c0f817d9be4d6c0e5e80b7d5; path=/; HttpOnly; Secure; SameSite=None
      strict-transport-security:
      - max-age=31556926; includeSubDomains
      - max-age=15768000
      transfer-encoding:
      - chunked
      vary:
      - Accept-Encoding
      x-content-type-options:
      - nosniff
      x-frame-options:
      - sameorigin
      x-ratelimit-limit:
      - '120'
      x-ratelimit-remaining:
      - '119'
      x-ratelimit-reset:
      - '1699012123'
      x-request-id:
      - 35af07772f32b9cfa218e3b2f240a645
      x-xss-protection:
      - 1; mode=block
    http_version: HTTP/1.1
    status_code: 200
version: 1
